CTF Dashboard
…
.panelset[
.panel[.panel-name[Data]

```r
# A tibble: 85 x 12
team   identifier weight attack_vector description requirements start_time end_time source_ip
<chr>  <chr>       <dbl> <chr>         <chr>       <chr>        <chr>      <chr>    <chr>    
1 Team 4 SCENARIO …      1 Brute-Force   Brute-forc… DNS server … 2021-02-0… 2021-02… 80.70.12…
2 Team 1 SCENARIO …      1 Brute-Force   Brute-forc… DNS server … 2021-02-0… 2021-02… 80.70.12…
3 Team 3 SCENARIO …      1 Brute-Force   Brute-forc… DNS server … 2021-02-0… 2021-02… 80.70.12…
4 Team 2 SCENARIO …      1 Brute-Force   Brute-forc… DNS server … 2021-02-0… 2021-02… 80.70.12…
5 Team 2 SCENARIO …      1 Network Reco… PING sweep… DMZ can be … 2021-02-0… 2021-02… 103.76.1…
6 Team 4 SCENARIO …      1 Network Reco… PING sweep… DMZ can be … 2021-02-0… 2021-02… 103.76.1…
7 Team 3 SCENARIO …      1 Network Reco… PING sweep… DMZ can be … 2021-02-0… 2021-02… 103.76.1…
8 Team 1 SCENARIO …      1 Network Reco… PING sweep… DMZ can be … 2021-02-0… 2021-02… 103.76.1…
9 Team 2 SCENARIO …      1 Network Reco… PING sweep… DMZ can be … 2021-02-0… 2021-02… 20.143.2…
10 Team 4 SCENARIO …      1 Network Reco… PING sweep… DMZ can be … 2021-02-0… 2021-02… 20.143.2…
# … with 75 more rows, and 3 more variables: targets <chr>, detec <dbl>, attack_result <chr>
```
…
